…
```r
# Calculate how many rows have missing values in the dataset
na.count.3 <- sum(is.na(data$steps))  # 2304L

# Devise a strategy for filling in the missing values
# Check if there is a pattern behind when the NA values occur
table.3 <- as_tibble(data) %>%
             group_by(date) %>%
             summarize(na.count = sum(is.na(steps))) %>%  # 61 obs of 2 vars
             arrange(desc(na.count)) %>%
             print()
```

```
## # A tibble: 61 x 2
##    date       na.count
##    <date>        <int>
##  1 2012-10-01      288
##  2 2012-10-08      288
##  3 2012-11-01      288
##  4 2012-11-04      288
##  5 2012-11-09      288
##  6 2012-11-10      288
##  7 2012-11-14      288
##  8 2012-11-30      288
##  9 2012-10-02        0
## 10 2012-10-03        0
## # ... with 51 more rows
```
…
